id,name,model_id:id,group_id:id,perm_read,perm_write,perm_create,perm_unlink
access_airline_ticket,access_airline_ticket,model_airline_ticket,,1,1,1,1
access_airline_ticket_details,access_airline_ticket_details,model_airline_ticket_details,,1,1,1,1
access_airline_ticket_type,access_airline_ticket_type,model_airline_ticket_type,,1,1,1,1