id,name,model_id:id,group_id:id,perm_read,perm_write,perm_create,perm_unlink
access_employee_timesheet,access_employee_timesheet,model_employee_timesheet,department_groups.group_finance_payroll_asst,1,1,1,1
access_employee_timesheet_accountant_payroll,access_employee_timesheet_accountant_payroll,model_employee_timesheet,department_groups.group_finance_accountant_payroll,1,0,0,0
access_employee_timesheet_import,access_employee_timesheet_import,model_employee_timesheet_import,department_groups.group_finance_payroll_asst,1,1,1,1
access_monthly_timesheet_payroll_asst,access_monthly_timesheet_payroll_asst,model_monthly_timesheet,department_groups.group_finance_payroll_asst,1,1,1,1
access_monthly_timesheet_payroll_accountant,access_monthly_timesheet_payroll_accountant,model_monthly_timesheet,department_groups.group_finance_accountant_payroll,1,0,0,0
access_monthly_allowance,access_monthly_allowance,model_employee_allowance,,1,1,1,1
access_import_confirm,access_import_confirm,model_import_confirm,,1,1,1,1
access_designation_allowances,access_designation_allowances,model_designation_allowances,,1,1,1,1
access_payable_allowance,access_payable_allowance,model_payable_allowance,,1,1,1,1
