id,name,model_id:id,group_id:id,perm_read,perm_write,perm_create,perm_unlink
access_insurance_deletion_hr_assistant,access_insurance_deletion_hr_assistant,model_insurance_deletion,department_groups.group_hr_asst,1,1,1,1
access_insurance_deletion_hr_manager,access_insurance_deletion_hr_manager,model_insurance_deletion,department_groups.group_hr_mgr,1,1,0,0
access_insurance_deletion_finance_manager,access_insurance_deletion_finance_manager,model_insurance_deletion,department_groups.group_finance_mgr,1,0,0,0
access_insurance_deletion_md,access_insurance_deletion_md,model_insurance_deletion,department_groups.group_mngmt_md,1,0,0,0









